Bayesian Regression: Theory & Practice - Wrangling & plotting
…
Selecting columns

For now, we are only interested in columns RT, group, condition, category_correct, and correct. We can use the select() function of dplyr to get rid of columns we don’t need.

Toggle code

# selecting specific columns
dolphin_selected <-
  dolphin |>
  dplyr::select(RT, group, condition, category_correct, correct)
 
# let's have a look
dolphin_selected

# A tibble: 2,052 × 5
      RT group condition category_correct correct
   <dbl> <chr> <chr>     <chr>              <dbl>
 1   950 touch Atypical  fish                   1
 2  1251 touch Typical   reptile                1
 3   930 touch Atypical  mammal                 0
 4   690 touch Atypical  Insekt                 1
 5   951 touch Typical   bird                   1
 6  1079 touch Atypical  bird                   1
 7  1050 touch Typical   fish                   1
 8   830 touch Typical   fish                   1
 9   700 touch Typical   mammal                 1
10   810 touch Typical   fish                   1
# ℹ 2,042 more rows
Filtering rows

If we care only about a subset of rows, we can use the filter() function. For example, let’s filter all trials in which the correct category was either a fish or a mammal

Toggle code

dolphin_filter1 <-
  dolphin_selected |> 
  filter(category_correct == "fish" | category_correct == "mammal")
  # the | is a logical operator that indicates that either the first expression OR 
  # the second one has to be true

dolphin_filter1

# A tibble: 1,296 × 5
      RT group condition category_correct correct
   <dbl> <chr> <chr>     <chr>              <dbl>
 1   950 touch Atypical  fish                   1
 2   930 touch Atypical  mammal                 0
 3  1050 touch Typical   fish                   1
 4   830 touch Typical   fish                   1
 5   700 touch Typical   mammal                 1
 6   810 touch Typical   fish                   1
 7  1264 touch Typical   mammal                 1
 8   890 touch Atypical  mammal                 0
 9  1040 touch Typical   mammal                 1
10   730 touch Typical   mammal                 1
# ℹ 1,286 more rows

You can also filter() against particular conditions. For example, let’s filter all rows that do not have bird as their correct category:

Toggle code

dolphin_filter2 <-
  dolphin_selected |> 
  filter(category_correct != "bird")

dolphin_filter2

# A tibble: 1,728 × 5
      RT group condition category_correct correct
   <dbl> <chr> <chr>     <chr>              <dbl>
 1   950 touch Atypical  fish                   1
 2  1251 touch Typical   reptile                1
 3   930 touch Atypical  mammal                 0
 4   690 touch Atypical  Insekt                 1
 5  1050 touch Typical   fish                   1
 6   830 touch Typical   fish                   1
 7   700 touch Typical   mammal                 1
 8   810 touch Typical   fish                   1
 9  1264 touch Typical   mammal                 1
10   890 touch Atypical  mammal                 0
# ℹ 1,718 more rows

We can also filter according to multiple conditions at once, including numeric conditions. Here, we also filter for trials that have correct responses.

Toggle code

dolphin_filter3 <-
  dolphin_selected |> 
  filter(category_correct != "bird",
         correct == 1)

dolphin_filter3

# A tibble: 1,602 × 5
      RT group condition category_correct correct
   <dbl> <chr> <chr>     <chr>              <dbl>
 1   950 touch Atypical  fish                   1
 2  1251 touch Typical   reptile                1
 3   690 touch Atypical  Insekt                 1
 4  1050 touch Typical   fish                   1
 5   830 touch Typical   fish                   1
 6   700 touch Typical   mammal                 1
 7   810 touch Typical   fish                   1
 8  1264 touch Typical   mammal                 1
 9  1040 touch Typical   mammal                 1
10   730 touch Typical   mammal                 1
# ℹ 1,592 more rows
…
