Bayesian Regression: Theory & Practice - Bayesian regression: theory & practice
…
Everything that is preceded by a b_ is a population level coefficients, i.e. our predictors. Now let’s wrangle this data frame to get what we need. You don’t have to entirely understand the following code, but make sure you understand it well enough to recycle it later on.

Reveal code

# wrangle data frame
posteriors1 <- model1 |>
  tidybayes::spread_draws(b_MAD, b_Intercept) |>
  select(b_MAD, b_Intercept)

posteriors1

# A tibble: 4,000 × 2
   b_MAD b_Intercept
   <dbl>       <dbl>
 1  465.       -872.
 2  454.        165.
 3  470.       -845.
 4  476.        157.
 5  435.        908.
 6  452.       -598.
 7  469.      -2528.
 8  462.      -1183.
 9  446.        520.
10  443.      -2153.
# … with 3,990 more rows
…
