Bayesian Regression: Theory & Practice - Priors and predictivs in brms
…
Toggle code

postPred_linPredictor <- tidybayes::add_linpred_draws(
  fit, 
  newdata = tibble(year = aida::data_WorldTemp$year),
  ndraws = 2000,
  value = 'avg_tmp'
) |> 
  ungroup() |> 
  select(year, .draw, avg_tmp)

postPred_linPredictor

# A tibble: 538,000 × 3
    year .draw avg_tmp
   <dbl> <int>   <dbl>
 1  1750     1    7.55
 2  1750     2    7.52
 3  1750     3    7.44
 4  1750     4    7.42
 5  1750     5    7.47
 6  1750     6    7.44
 7  1750     7    7.48
 8  1750     8    7.51
 9  1750     9    7.40
10  1750    10    7.38
# ℹ 537,990 more rows
…
Toggle code

priorPred_linPredictor <- tidybayes::add_linpred_draws(
  fit_prior_only, 
  newdata = tibble(year = aida::data_WorldTemp$year),
  ndraws = 2000,
  value = 'avg_tmp'
) |> 
  ungroup() |> 
  select(year, .draw, avg_tmp)

priorPred_linPredictor

# A tibble: 538,000 × 3
    year .draw avg_tmp
   <dbl> <int>   <dbl>
 1  1750     1   7.68 
 2  1750     2   2.92 
 3  1750     3   5.08 
 4  1750     4   8.84 
 5  1750     5   8.67 
 6  1750     6  -1.94 
 7  1750     7   4.73 
 8  1750     8   0.878
 9  1750     9  12.2  
10  1750    10  12.6  
# ℹ 537,990 more rows
…
Toggle code

postPred_linPredictor <- tidybayes::add_predicted_draws(
  fit, 
  newdata = tibble(year = aida::data_WorldTemp$year),
  ndraws = 1, # we only want 1 sample of y for each x-values
  value = 'avg_tmp'
) |> 
  ungroup() |> 
  select(year, .draw, avg_tmp)

postPred_linPredictor

# A tibble: 269 × 3
    year .draw avg_tmp
   <dbl> <int>   <dbl>
 1  1750     1    7.53
 2  1751     1    7.83
 3  1753     1    7.88
 4  1754     1    7.12
 5  1755     1    7.08
 6  1756     1    7.81
 7  1757     1    6.74
 8  1758     1    7.02
 9  1759     1    7.73
10  1760     1    7.62
# ℹ 259 more rows
…
