Bayesian Regression: Theory & Practice - Cheat sheet: common things to do with BRMS
…
Family Specific Parameters: 
      Estimate Est.Error l-95% CI u-95% CI Rhat Bulk_ESS Tail_ESS
sigma   135.47      1.99   131.62   139.36 1.00    11691     6184

Draws were sampled using sampling(NUTS). For each parameter, Bulk_ESS
and Tail_ESS are effective sample size measures, and Rhat is the potential
scale reduction factor on split chains (at convergence, Rhat = 1).

Same in tidy format:

Toggle code

tidybayes::summarise_draws(fit_MC)

# A tibble: 216 × 10
   variable         mean   median     sd    mad       q5      q95  rhat ess_bulk
   <chr>           <num>    <num>  <num>  <num>    <num>    <num> <num>    <num>
 1 b_Intercept   442.     442.     9.02   8.91   427.     456.     1.00    5266.
 2 b_condition… -131.    -131.     8.61   8.35  -145.    -117.     1.00   10357.
 3 b_condition…   74.1     74.2   14.5   14.6     50.4     98.2    1.00    4769.
 4 sd_submissi…   46.9     46.5    8.33   8.12    34.3     61.2    1.00    4247.
 5 sd_submissi…   27.1     27.3   12.1   12.2      6.68    47.0    1.01    1214.
 6 sd_submissi…   89.5     88.6   12.2   12.1     70.9    111.     1.00    3479.
 7 sd_submissi…   19.0     19.1   10.0   10.9      2.70    35.4    1.00    1648.
 8 cor_submiss…   -0.367   -0.411  0.295  0.276   -0.765    0.199  1.00    4375.
 9 cor_submiss…    0.650    0.666  0.170  0.176    0.343    0.900  1.01    1941.
10 cor_submiss…   -0.275   -0.287  0.295  0.314   -0.738    0.217  1.00    1964.
# ℹ 206 more rows
# ℹ 1 more variable: ess_tail <num>
…
Retrieve all per-sample diagnostics from a fitted object:

Toggle code

fit_MC |> 
  tidybayes::tidy_draws() |> 
  dplyr::select(ends_with("__"))

# A tibble: 8,000 × 7
      lp__ accept_stat__ stepsize__ treedepth__ n_leapfrog__ divergent__
     <dbl>         <dbl>      <dbl>       <dbl>        <dbl>       <dbl>
 1 -16260.         0.991     0.0898           6           63           0
 2 -16259.         0.992     0.0898           6           63           0
 3 -16269.         0.956     0.0898           6           63           0
 4 -16267.         1.00      0.0898           6           63           0
 5 -16257.         0.957     0.0898           6           63           0
 6 -16240.         0.886     0.0898           6           63           0
 7 -16225.         0.998     0.0898           6           63           0
 8 -16223.         0.978     0.0898           6           63           0
 9 -16229.         0.941     0.0898           6           63           0
10 -16232.         0.999     0.0898           6           63           0
# ℹ 7,990 more rows
# ℹ 1 more variable: energy__ <dbl>

fill me

Extracting samples

Tidy samples with tidybayes

Retrieve all samples with tidybayes::tidy_draws():

Toggle code

tidybayes::tidy_draws(fit_MC)

# A tibble: 8,000 × 225
   .chain .iteration .draw b_Intercept b_conditionreaction
    <int>      <int> <int>       <dbl>               <dbl>
 1      1          1     1        442.               -135.
 2      1          2     2        435.               -120.
 3      1          3     3        441.               -137.
 4      1          4     4        430.               -129.
 5      1          5     5        439.               -140.
 6      1          6     6        439.               -140.
 7      1          7     7        439.               -129.
 8      1          8     8        448.               -136.
 9      1          9     9        434.               -124.
10      1         10    10        438.               -128.
# ℹ 7,990 more rows
# ℹ 220 more variables: b_conditiondiscrimination <dbl>,
#   sd_submission_id__Intercept <dbl>,
#   sd_submission_id__conditionreaction <dbl>,
#   sd_submission_id__conditiondiscrimination <dbl>,
#   sd_submission_id__shapesquare <dbl>,
#   cor_submission_id__Intercept__conditionreaction <dbl>, …
…
Group-level effects

The group-level design matrix is spread out over different variables (all names Z_ followed by some indices), but retrievable like so:

Toggle code

data4Stan <- brms::standata(fit_MC)
Z <- data4Stan[str_detect(data4Stan |> names(), "Z_")] |> as_tibble()
Z

# A tibble: 2,519 × 4
       Z_1_1     Z_1_2     Z_1_3     Z_1_4
   <dbl[1d]> <dbl[1d]> <dbl[1d]> <dbl[1d]>
 1         1         1         0         0
 2         1         1         0         1
 3         1         1         0         1
 4         1         1         0         1
 5         1         1         0         0
 6         1         1         0         1
 7         1         1         0         1
 8         1         1         0         0
 9         1         1         0         1
10         1         1         0         0
# ℹ 2,509 more rows
