Bayesian Regression: Theory & Practice - Bayesian regression: theory & practice
…
dolphin_prepped <-
  dolphin |>
  mutate(
    prototype_label = case_when(
     prototype_label %in% c('curved', 'straight') ~ prototype_label,
     TRUE ~ 'CoM'
    ),
    prototype_label = factor(prototype_label,
                             levels = c('straight', 'curved', 'CoM')))

dolphin_prepped |>
  select(RT, prototype_label)

# A tibble: 2,052 × 2
      RT prototype_label
   <dbl> <fct>          
 1   950 straight       
 2  1251 straight       
 3   930 curved         
 4   690 curved         
 5   951 CoM            
 6  1079 CoM            
 7  1050 CoM            
 8   830 straight       
 9   700 straight       
10   810 straight       
# … with 2,042 more rows
…
