Bayesian Regression: Theory & Practice - Group-level effects, pooling & smoothing
…
Different ways to a mean

We will use the data set of (log) radon measurements that ships with the rstanarm package.

Toggle code

data_radon <- rstanarm::radon |> as_tibble()
data_radon

# A tibble: 919 x 4
   floor county log_radon log_uranium
   <int> <fct>      <dbl>       <dbl>
 1     1 AITKIN    0.833       -0.689
 2     0 AITKIN    0.833       -0.689
 3     0 AITKIN    1.10        -0.689
 4     0 AITKIN    0.0953      -0.689
 5     0 ANOKA     1.16        -0.847
 6     0 ANOKA     0.956       -0.847
 7     0 ANOKA     0.470       -0.847
 8     0 ANOKA     0.0953      -0.847
 9     0 ANOKA    -0.223       -0.847
10     0 ANOKA     0.262       -0.847
# i 909 more rows
…
[1] 1.37991

Aha! There is a difference between the empirical mean (sample mean; mean of all data points) and the mean-of-means (a.k.a., grand mean). This is because there are different numbers of observations for each county:

Toggle code

data_radon |> 
  group_by(county) |> 
  summarize(mean_by_county = mean(log_radon),
            n_obs_by_county = n())

# A tibble: 85 x 3
   county    mean_by_county n_obs_by_county
   <fct>              <dbl>           <int>
 1 AITKIN             0.715               4
 2 ANOKA              0.891              52
 3 BECKER             1.09                3
 4 BELTRAMI           1.19                7
 5 BENTON             1.28                4
 6 BIGSTONE           1.54                3
 7 BLUEEARTH          1.93               14
 8 BROWN              1.65                4
 9 CARLTON            0.977              10
10 CARVER             1.22                6
# i 75 more rows
…
