Bayesian Regression: Theory & Practice - 04a: MCMC diagnostics (demonstrations)
…
Here’s what’s wrong: year_perturbed is a constant! The model is a crappy model of the data, because the data is not what we thought it would be. Check it out:

Toggle code

aida::data_WorldTemp |> mutate(year_perturbed = rnorm(1,year,0.001))

# A tibble: 269 × 5
    year anomaly uncertainty avg_temp year_perturbed
   <dbl>   <dbl>       <dbl>    <dbl>          <dbl>
 1  1750  -1.41        NA        7.20          1750.
 2  1751  -1.52        NA        7.09          1750.
 3  1753  -1.07         1.3      7.54          1750.
 4  1754  -0.614        1.09     8.00          1750.
 5  1755  -0.823        1.24     7.79          1750.
 6  1756  -0.547        1.28     8.06          1750.
 7  1757  -0.438        1.31     8.17          1750.
 8  1758  -2.42         1.76     6.19          1750.
 9  1759  -1.53         2.25     7.08          1750.
10  1760  -2.46         2.75     6.14          1750.
# ℹ 259 more rows

So, we basically ran a model with two intercepts!?!

Let’s try again:

Toggle code

data_WorldTemp_perturbed <- aida::data_WorldTemp |> 
    mutate(year_perturbed = rnorm(nrow(aida::data_WorldTemp),year, 50))
data_WorldTemp_perturbed

# A tibble: 269 × 5
    year anomaly uncertainty avg_temp year_perturbed
   <dbl>   <dbl>       <dbl>    <dbl>          <dbl>
 1  1750  -1.41        NA        7.20          1781.
 2  1751  -1.52        NA        7.09          1837.
 3  1753  -1.07         1.3      7.54          1732.
 4  1754  -0.614        1.09     8.00          1783.
 5  1755  -0.823        1.24     7.79          1685.
 6  1756  -0.547        1.28     8.06          1801.
 7  1757  -0.438        1.31     8.17          1732.
 8  1758  -2.42         1.76     6.19          1785.
 9  1759  -1.53         2.25     7.08          1785.
10  1760  -2.46         2.75     6.14          1847.
# ℹ 259 more rows
…
