Bayesian Regression: Theory & Practice - 07: Causal inference
…
For subsequent analysis (especially when generating predictive samples), it helps to have the data in long format. The uncount() function is a great tool for this.

Toggle code

# cast into long format
data_SP_long <- rbind(
  data_simpsons_paradox |> uncount(k) |> 
    mutate(recover = TRUE)  |> select(-N, -proportion),
  data_simpsons_paradox |> uncount(N-k) |> 
    mutate(recover = FALSE) |> select(-N, -proportion, -k)
)
data_SP_long

# A tibble: 700 × 4
   gender bloodP drug  recover
   <chr>  <chr>  <chr> <lgl>  
 1 Male   Low    Take  TRUE   
 2 Male   Low    Take  TRUE   
 3 Male   Low    Take  TRUE   
 4 Male   Low    Take  TRUE   
 5 Male   Low    Take  TRUE   
 6 Male   Low    Take  TRUE   
 7 Male   Low    Take  TRUE   
 8 Male   Low    Take  TRUE   
 9 Male   Low    Take  TRUE   
10 Male   Low    Take  TRUE   
# ℹ 690 more rows
…
# NB: in this case we could also have gotten this via: 
# rbinom(n=4000, p=rbeta(4000, 315+1, 700-315+1), size = 700)

postPred_gender

# A tibble: 4,000 × 1
   gender
   <chr> 
 1 Female
 2 Female
 3 Male  
 4 Male  
 5 Female
 6 Male  
 7 Female
 8 Female
 9 Male  
10 Female
# ℹ 3,990 more rows
…
