Bayesian Regression: Theory & Practice - Bayesian regression: theory & practice
…
For subsequent analysis (especially when generating predictive samples), it helps to have the data in long format. The uncount() function is a great tool for this.

Reveal code

# cast into long format
data_SP_long <- rbind(
  data_simpsons_paradox |> uncount(k) |> 
    mutate(recover = TRUE)  |> select(-N, -proportion),
  data_simpsons_paradox |> uncount(N-k) |> 
    mutate(recover = FALSE) |> select(-N, -proportion, -k)
)
data_SP_long

# A tibble: 700 × 4
   gender bloodP drug  recover
   <chr>  <chr>  <chr> <lgl>  
 1 Male   Low    Take  TRUE   
 2 Male   Low    Take  TRUE   
 3 Male   Low    Take  TRUE   
 4 Male   Low    Take  TRUE   
 5 Male   Low    Take  TRUE   
 6 Male   Low    Take  TRUE   
 7 Male   Low    Take  TRUE   
 8 Male   Low    Take  TRUE   
 9 Male   Low    Take  TRUE   
10 Male   Low    Take  TRUE   
# … with 690 more rows
…
