Bayesian Regression: Theory & Practice - 03a: Generalized linear models
…
The relevant data now looks as follows:

Toggle code

data_MT_prepped |> 
  select(prototype_label, target_position)

# A tibble: 2,052 × 2
   prototype_label target_position
   <fct>           <chr>          
 1 straight        left           
 2 straight        right          
 3 curved          right          
 4 curved          left           
 5 CoM             left           
 6 CoM             right          
 7 CoM             right          
 8 straight        left           
 9 straight        left           
10 straight        left           
# ℹ 2,042 more rows
…
